Replication of Study ‘What makes words special? Words as unmotivated cues’ (2015, Cognition)
…
# Data exclusion / filtering
combined_df <- combined_df %>%
  mutate(correct_response = as.character(correct_response)) %>%
  mutate(response = as.character(response)) %>%
  mutate(correct = correct_response == response)

accuracy_table <- combined_df %>%
  group_by(ID) %>%
  summarise(accuracy = mean(correct, na.rm = TRUE))
accuracy_table

# A tibble: 50 × 2
   ID                accuracy
   <chr>                <dbl>
 1 pilotb_0avgjvg9fq    0.909
 2 pilotb_1ek0dtzsue    0.982
 3 pilotb_1jvj8tk7kj    0.984
 4 pilotb_2hxtegq7gk    0.982
 5 pilotb_2xj1owf03n    0.961
 6 pilotb_3517eh85oh    0.979
 7 pilotb_42vlt395x7    0.974
 8 pilotb_5sqn8xrq7f    0.961
 9 pilotb_5uav4k1slc    0.844
10 pilotb_6fr0jrn133    0.961
# ℹ 40 more rows
…
